{
	"id": 1,
	"fName": "Alireza",
	"lName": "Meftahi",
	"tel": "0939374",
	"address": {
		"id": 1,
		"city": "Karaj",
		"streetMain": "Main",
		"streetSecond": "Sec",
		"block": 7,
		"zipCode": 26
	}
}